name,weight
APPLE,4.463244%
MICROSOFT CORP,3.367351%
AMAZON.COM,1.633951%
NVIDIA,1.078100%
TESLA,1.050841%
ALPHABET A,1.042090%
ALPHABET C,0.957210%
EXXON MOBIL CORP,0.881751%
UNITEDHEALTH GROUP,0.857314%
JPMORGAN CHASE & CO,0.807320%
JOHNSON & JOHNSON,0.770178%
BERKSHIRE HATHAWAY B,0.765772%
META PLATFORMS A,0.752942%
VISA A,0.686450%
PROCTER & GAMBLE CO,0.629850%
NESTLE,0.596874%
MASTERCARD A,0.585905%
CHEVRON CORP,0.574757%
HOME DEPOT,0.572228%
ABBVIE,0.530181%
MERCK & CO,0.522087%
LILLY (ELI) & COMPANY,0.489920%
BROADCOM,0.477917%
ASML HLDG,0.477287%
BANK OF AMERICA CORP,0.475936%
COCA COLA (THE),0.466893%
NOVO NORDISK B,0.457352%
PEPSICO,0.455751%
LVMH MOET HENNESSY,0.451803%
PFIZER,0.435477%
SHELL,0.419507%
COSTCO WHOLESALE CORP,0.409061%
THERMO FISHER SCIENTIFIC,0.407794%
WALMART,0.403962%
ROCHE HOLDING GENUSS,0.391472%
ASTRAZENECA,0.388522%
CISCO SYSTEMS,0.383428%
MCDONALD'S CORP,0.371528%
NOVARTIS,0.349490%
DISNEY (WALT),0.346856%
WELLS FARGO & CO,0.343438%
ABBOTT LABORATORIES,0.339443%
LINDE (NEW),0.333824%
DANAHER CORP,0.327622%
SALESFORCE,0.323119%
ACCENTURE A,0.320672%
VERIZON COMMUNICATIONS,0.310574%
BHP GROUP (AU),0.305765%
COMCAST CORP A (NEW),0.305105%
TEXAS INSTRUMENTS,0.301700%
TOTALENERGIES,0.297249%
HSBC HOLDINGS (GB),0.296399%
PHILIP MORRIS INTL,0.291859%
ADOBE,0.290275%
NIKE B,0.288410%
BRISTOL-MYERS SQUIBB CO,0.284735%
TOYOTA MOTOR CORP,0.280303%
RAYTHEON TECHNOLOGIES,0.278275%
ORACLE CORP,0.269678%
NETFLIX,0.269356%
NEXTERA ENERGY,0.268078%
QUALCOMM,0.267696%
ROYAL BANK OF CANADA,0.262273%
UNITED PARCEL SERVICE B,0.257984%
AT&T,0.256776%
CONOCOPHILLIPS,0.255628%
HONEYWELL INTERNATIONAL,0.250381%
CATERPILLAR,0.249865%
AIA GROUP,0.248674%
UNION PACIFIC CORP,0.246896%
ADVANCED MICRO DEVICES,0.243727%
AMGEN,0.243331%
UNILEVER PLC (GB),0.243143%
MORGAN STANLEY,0.235419%
TORONTO-DOMINION BANK,0.233313%
DEERE & CO,0.232380%
BP,0.231507%
SAP,0.229401%
SIEMENS,0.229091%
LOWE'S COS,0.226868%
GOLDMAN SACHS GROUP,0.226377%
STARBUCKS CORP,0.224786%
IBM CORP,0.223779%
BOEING CO,0.223611%
COMMONWEALTH BANK OF AUS,0.219185%
S&P GLOBAL,0.217177%
SCHWAB (CHARLES) CORP,0.217121%
ELEVANCE HEALTH,0.216283%
LOCKHEED MARTIN CORP,0.216015%
PROLOGIS,0.215887%
AMERICAN EXPRESS,0.215726%
MEDTRONIC PLC,0.210802%
CVS HEALTH,0.209227%
SANOFI,0.207661%
INTUIT,0.206770%
SONY GROUP CORP,0.204540%
INTEL CORP,0.201839%
BLACKROCK A,0.197360%
APPLIED MATERIALS,0.194778%
GILEAD SCIENCES,0.192742%
CITIGROUP,0.192593%
BOOKING HOLDINGS,0.191154%
DIAGEO,0.185540%
L'OREAL,0.185128%
CSL,0.184414%
ALLIANZ,0.183902%
ANALOG DEVICES,0.180061%
GENERAL ELECTRIC CO,0.177512%
AUTOMATIC DATA PROCESS,0.175856%
AMERICAN TOWER CORP,0.175204%
TJX COMPANIES,0.172301%
SCHNEIDER ELECTRIC,0.171660%
STRYKER CORP,0.170957%
THE CIGNA GROUP,0.170455%
T-MOBILE US,0.169704%
MONDELEZ INTERNATIONAL A,0.169252%
CHUBB,0.167889%
SERVICENOW,0.167627%
KEYENCE CORP,0.163458%
MITSUBISHI UFJ FIN GRP,0.161990%
AIR LIQUIDE,0.161032%
PROGRESSIVE CORP,0.160670%
ALTRIA GROUP,0.159694%
REGENERON PHARMACEUTICAL,0.159294%
RIO TINTO PLC (GB),0.155690%
MARSH & MCLENNAN COS,0.155156%
INTUITIVE SURGICAL,0.155110%
PAYPAL HOLDINGS,0.154365%
BRITISH AMERICAN TOBACCO,0.154284%
FIN RICHEMONT NAMEN A,0.153048%
ZOETIS A,0.150795%
SCHLUMBERGER,0.150281%
AIRBUS,0.148991%
ENBRIDGE,0.148586%
BNP PARIBAS,0.145119%
VERTEX PHARMACEUTICALS,0.144339%
TARGET CORP,0.144335%
DEUTSCHE TELEKOM,0.141213%
UBS GROUP,0.139776%
CP RAILWAY,0.138200%
ZURICH INSURANCE GROUP,0.138141%
ILLINOIS TOOL WORKS,0.137786%
DUKE ENERGY CORP,0.136655%
FISERV,0.134896%
IBERDROLA,0.134332%
GSK,0.134081%
EOG RESOURCES,0.133839%
EATON CORP PLC,0.133480%
SOUTHERN COMPANY (THE),0.130997%
NORTHROP GRUMMAN CORP,0.130584%
BOSTON SCIENTIFIC CORP,0.129481%
LAM RESEARCH CORP,0.129269%
US BANCORP,0.128938%
CANADIAN NATL RAILWAY,0.128218%
CME GROUP,0.127958%
BANCO SANTANDER,0.127689%
BECTON DICKINSON,0.127024%
BANK MONTREAL,0.125392%
CSX CORP,0.125271%
CANADIAN NAT RESOURCES,0.123741%
AIR PRODUCTS & CHEMICALS,0.123493%
GLENCORE,0.122470%
BLACKSTONE GROUP,0.121651%
HUMANA,0.121279%
MERCEDES BENZ GROUP,0.121233%
NATIONAL AUSTRALIA BANK,0.120958%
PNC FINL SERVICES GROUP,0.120866%
EQUINIX,0.120779%
AON PLC A,0.120500%
MICRON TECHNOLOGY,0.120362%
TRUIST FINANCIAL CORP,0.119632%
VINCI,0.119230%
FREEPORT MCMORAN B,0.118669%
WASTE MANAGEMENT,0.117955%
3M CO,0.117620%
MARATHON PETROLEUM,0.116903%
PROSUS N,0.115787%
BANK NOVA SCOTIA,0.115734%
AXA,0.115379%
ACTIVISION BLIZZARD,0.114420%
BAYER,0.114045%
RELX (GB),0.112246%
HERMES INTERNATIONAL,0.111653%
COLGATE-PALMOLIVE,0.111146%
ESTEE LAUDER COS A,0.109772%
SUMITOMO MITSUI FINL GRP,0.109716%
PALO ALTO NETWORKS,0.109134%
INTERCONTINENTAL EXCH,0.108816%
CROWN CASTLE,0.107827%
SYNOPSYS,0.106588%
GENERAL MOTORS,0.106212%
MERCADOLIBRE,0.105640%
DAIICHI SANKYO CO,0.104888%
SHERWIN-WILLIAMS CO,0.104103%
VALERO ENERGY CORP,0.103683%
KLA CORPORATION,0.103525%
GENERAL DYNAMICS CORP,0.102593%
ABB LTD,0.101667%
ING GROEP,0.101477%
CADENCE DESIGN SYSTEMS,0.101391%
ANHEUSER-BUSCH INBEV,0.101333%
WESTPAC BANKING,0.100906%
TOKYO ELECTRON,0.100772%
NORFOLK SOUTHERN CORP,0.100760%
SHIN-ETSU CHEMICAL CO,0.100067%
HCA HOLDINGS,0.100017%
O'REILLY AUTOMOTIVE,0.099583%
HONGKONG EXCH & CLEARING,0.098007%
ESSILORLUXOTTICA,0.097882%
PHILLIPS 66,0.097863%
FEDEX CORP,0.097529%
RECKITT BENCKISER GROUP,0.097056%
MCKESSON CORP,0.096300%
HITACHI,0.095879%
EDWARDS LIFESCIENCES,0.095320%
UBER TECHNOLOGIES,0.095278%
ANZ GROUP HOLDINGS,0.095195%
EMERSON ELECTRIC CO,0.094844%
MUENCHENER RUECKVERSICH,0.094596%
SOFTBANK GROUP CORP,0.094430%
SAFRAN,0.094341%
FORD MOTOR CO,0.093952%
DOLLAR GENERAL CORP,0.093113%
SHOPIFY A,0.092131%
MOODY'S CORP,0.092092%
METLIFE,0.091773%
BASF,0.091549%
WOODSIDE ENERGY GROUP,0.091248%
KDDI,0.091178%
INFINEON TECHNOLOGIES,0.090895%
MACQUARIE GROUP,0.090570%
BROOKFIELD CORP A,0.090539%
GENERAL MILLS,0.090362%
PUBLIC STORAGE,0.090250%
AUTOZONE,0.090024%
SUNCOR ENERGY,0.089827%
BBVA,0.089769%
SEMPRA ENERGY,0.089738%
PIONEER NATURAL RES,0.089530%
NXP SEMICONDUCTORS (US),0.089495%
AMPHENOL CORP,0.089289%
TAKEDA PHARMACEUTICAL,0.089122%
DBS GROUP HOLDINGS,0.088596%
AIRBNB A,0.088265%
DOMINION ENERGY,0.088070%
MARRIOTT INTERNATIONAL A,0.088024%
ANGLO AMERICAN,0.087783%
PARKER HANNIFIN CORP,0.087604%
AMERICAN INTL GROUP,0.087450%
ENEL,0.087143%
KERING,0.086660%
NATIONAL GRID,0.086295%
ROPER TECHNOLOGIES,0.086247%
MICROCHIP TECHNOLOGY,0.085785%
CORTEVA,0.085738%
AMERICAN ELECTRIC POWER,0.085683%
LONZA GROUP,0.085652%
MODERNA,0.085535%
MOTOROLA SOLUTIONS,0.085019%
MITSUBISHI CORP,0.084848%
NUCOR CORP,0.084573%
INTESA SANPAOLO,0.084372%
ARCHER-DANIELS-MIDLAND,0.084046%
OCCIDENTAL PETROLEUM,0.083829%
JOHNSON CONTROLS (NEW),0.083783%
PERNOD RICARD,0.083529%
TRAVELERS COS (THE),0.083278%
HONDA MOTOR CO,0.082761%
DEXCOM,0.082603%
TRANE TECHNOLOGIES,0.082559%
DEUTSCHE POST,0.082514%
PRUDENTIAL,0.082473%
DAIKIN INDUSTRIES,0.082446%
AUTODESK,0.081847%
KIMBERLY-CLARK CORP,0.081271%
LLOYDS BANKING GROUP,0.081040%
NORDEA BANK,0.080704%
MITSUI & CO,0.080563%
CANADIAN IMPERIAL BANK,0.080296%
NINTENDO CO,0.080198%
CAPITAL ONE FINANCIAL,0.080021%
MSCI,0.079577%
BLOCK,0.079515%
CHIPOTLE MEXICAN GRILL A,0.079471%
STELLANTIS,0.079049%
NUTRIEN,0.078922%
TC ENERGY CORPORATION,0.078871%
DOW,0.078838%
SIKA,0.078497%
ECOLAB,0.078460%
AGILENT TECHNOLOGIES,0.078324%
TE CONNECTIVITY,0.078297%
COMPASS GROUP,0.077907%
AFLAC,0.077692%
L3HARRIS TECHNOLOGIES,0.077231%
REALTY INCOME CORP,0.076917%
SIMON PROPERTY GROUP,0.076541%
GALLAGHER (ARTHUR J.),0.076443%
CHARTER COMM A (NEW),0.076278%
EXELON CORP,0.076269%
HILTON WORLDWIDE HLDGS,0.075979%
CINTAS CORP,0.075725%
BIOGEN,0.075685%
IQVIA HOLDINGS,0.075588%
TOKIO MARINE HOLDINGS,0.075287%
RECRUIT HOLDINGS CO,0.075082%
IDEXX LABORATORIES,0.075010%
MONSTER BEVERAGE,0.074942%
FORTINET,0.074929%
CENTENE CORP,0.074904%
BANK NEW YORK MELLON,0.074901%
TRANSDIGM GROUP INC,0.074896%
UNICREDIT,0.074702%
MARVELL TECHNOLOGY,0.074671%
ROSS STORES,0.074161%
HESS,0.073859%
CARRIER GLOBAL,0.073612%
PACCAR,0.073576%
SYSCO CORP,0.073473%
ALIMENTATION COUCHE,0.072703%
MANULIFE FINANCIAL CORP,0.072696%
MIZUHO FINANCIAL GROUP,0.072674%
FIDELITY NATL INFO SVCS,0.072007%
WESFARMERS,0.071485%
WORKDAY A,0.071455%
PRUDENTIAL FINANCIAL,0.071018%
DUPONT DE NEMOURS,0.070664%
AMERIPRISE FINANCIAL,0.070536%
WILLIAMS COS,0.070430%
CONSTELLATION BRANDS A,0.070412%
DANONE,0.070167%
CHENIERE ENERGY,0.069477%
ITOCHU CORP,0.069463%
LULULEMON ATHLETICA,0.069430%
PAYCHEX,0.069328%
YUM BRANDS,0.068638%
OTIS WORLDWIDE,0.068554%
CRH,0.068497%
CUMMINS,0.067856%
ENI,0.067841%
BMW STAMM,0.067771%
INVESTOR B,0.067768%
NEWMONT CORP,0.067585%
KINDER MORGAN P,0.067416%
HERSHEY CO (THE),0.067153%
DSV,0.067149%
HOYA CORP,0.066960%
WARNER BROS DISCOVERY,0.066904%
XCEL ENERGY,0.066853%
SNOWFLAKE A,0.066821%
WELLTOWER INC,0.066683%
NTT CORP,0.066560%
WASTE CONNECTIONS,0.066262%
FAST RETAILING CO,0.066035%
HOLCIM,0.065991%
HALLIBURTON CO,0.065765%
DEVON ENERGY CORP,0.065636%
ARISTA NETWORKS,0.065400%
ALLSTATE CORP,0.065345%
ON SEMICONDUCTOR CORP,0.065316%
CONSTELLATION SOFTWARE,0.065308%
ALCON,0.065259%
INDITEX,0.065180%
DEUTSCHE BOERSE,0.064967%
ROCKWELL AUTOMATION,0.064892%
SEVEN & I HOLDINGS CO,0.064786%
BAE SYSTEMS,0.064778%
STMICROELECTRONICS,0.064363%
FANUC,0.064358%
BARCLAYS,0.064109%
FERRARI (IT),0.063917%
STATE STREET CORP,0.063417%
AHOLD DELHAIZE,0.063347%
DOLLAR TREE,0.063256%
AMETEK,0.062810%
VICI PROPERTIES,0.062667%
UNITED RENTALS,0.062601%
SOFTBANK CORP,0.062333%
COGNIZANT TECH SOLUTIONS,0.061888%
APTIV PLC,0.061784%
ORIENTAL LAND CO,0.061568%
ATLAS COPCO A,0.061475%
OLD DOMINION FREIGHT,0.061397%
METTLER TOLEDO INTL,0.061037%
OCBC BANK,0.061036%
RESMED,0.060557%
KKR & CO A,0.060466%
PPG INDUSTRIES,0.060458%
VODAFONE GROUP,0.060454%
SWISS RE,0.060444%
CONSOLIDATED EDISON,0.060398%
ILLUMINA,0.060299%
CAPGEMINI,0.060183%
BAKER HUGHES CO,0.060117%
EXPERIAN,0.060116%
MURATA MANUFACTURING CO,0.060107%
DISCOVER FINANCIAL,0.059581%
ADYEN NV,0.059262%
GRAINGER (WW),0.058918%
ELECTRONIC ARTS,0.058855%
VOLVO B,0.058737%
WOLTERS KLUWER,0.058684%
WOOLWORTHS GROUP,0.058412%
VESTAS WIND SYSTEMS,0.058328%
GLOBAL PAYMENTS,0.058307%
SAINT-GOBAIN,0.058060%
FERGUSON(US),0.058033%
RIO TINTO LTD (AU),0.057993%
COPART,0.057772%
SMC CORP,0.057555%
HORTON (DR),0.057407%
ALBEMARLE CORP,0.057147%
ONEOK,0.057095%
FASTENAL CO,0.057008%
KROGER CO,0.056957%
ASHTEAD GROUP,0.056598%
LONDON STOCK EXCHANGE,0.056560%
PUBLIC SERVICE ENT GRP,0.056396%
TRANSURBAN GROUP,0.056338%
EQUINOR,0.056265%
AMADEUS IT GROUP A,0.056214%
HP,0.056054%
DIGITAL REALTY TRUST,0.055975%
ENPHASE ENERGY,0.055887%
APOLLO GLOBAL MGMT A,0.055644%
BARRICK GOLD CORP,0.055557%
SUN LIFE FINANCIAL,0.055177%
COSTAR GROUP,0.054990%
REPUBLIC SERVICES,0.054933%
KRAFT HEINZ CO,0.054492%
KEYSIGHT TECHNOLOGIES,0.054151%
GIVAUDAN,0.053538%
VERISK ANALYTICS A,0.053361%
CORNING,0.053261%
SBA COMMUNICATIONS A,0.053138%
GE HEALTHCARE TECH,0.052888%
WEC ENERGY GROUP,0.052725%
CDW CORP,0.052486%
FLUTTER ENTERTAINMENT,0.052238%
RWE STAMM,0.051742%
CENOVUS ENERGY,0.051661%
HEINEKEN NV,0.051484%
CBRE GROUP,0.051481%
KEURIG DR PEPPER,0.051421%
M & T BANK CORP,0.051385%
ENGIE,0.051189%
ULTA BEAUTY,0.051033%
UNITED OVERSEAS BANK,0.050813%
ARCH CAPITAL GROUP,0.050683%
ANSYS,0.050324%
WALGREENS BOOTS ALLIANCE,0.049960%
ASTELLAS PHARMA,0.049762%
GARTNER,0.049653%
DASSAULT SYSTEMES,0.049551%
FRANCO-NEVADA CORP,0.049496%
ZIMMER BIOMET HOLDINGS,0.049465%
DEUTSCHE BANK,0.049364%
EVERSOURCE ENERGY,0.049208%
VOLKSWAGEN VORZUG,0.049137%
LYONDELLBASELL INDS A,0.049030%
INTACT FINANCIAL,0.048936%
FORTESCUE METALS GROUP,0.048917%
NATIONAL BANK OF CANADA,0.048663%
FUJITSU,0.048618%
NOKIA CORP,0.048569%
WILLIS TOWERS WATSON,0.048566%
AMERICAN WATER WORKS CO,0.048497%
LEGRAND,0.048346%
TRACTOR SUPPLY CO,0.048151%
FIFTH THIRD BANCORP,0.047962%
PRICE (T. ROWE) GROUP,0.047949%
EBAY,0.047935%
SEAGEN,0.047919%
GENMAB,0.047851%
TRADE DESK A,0.047639%
HARTFORD FINANCIAL SVCS,0.047624%
EDISON INTERNATIONAL,0.047624%
EQUIFAX,0.047458%
CROWDSTRIKE HLDGS A,0.047370%
MERCK KGAA STAMM,0.047175%
LENNAR CORP A,0.047046%
ADIDAS,0.047018%
ASSA ABLOY B,0.046986%
CONSTELLATION ENERGY,0.046945%
JAPAN TOBACCO,0.046909%
ATLASSIAN (US),0.046767%
DIAMONDBACK ENERGY,0.046687%
AMERISOURCEBERGEN,0.046613%
E. ON,0.046468%
GENUINE PARTS CO,0.046419%
ALNYLAM PHARMACEUTICALS,0.046416%
VULCAN MATERIALS CO,0.046183%
HORIZON THERAPEUTICS PLC,0.045866%
WEST PHARMACEUTICAL SVCS,0.045496%
AVALONBAY COMMUNITIES,0.045436%
INGERSOLL-RAND,0.045377%
SAMPO A,0.045214%
VMWARE A,0.045113%
INTL FLAVORS & FRAGRANCE,0.045113%
VEEVA SYSTEMS A,0.045072%
STANDARD CHARTERED,0.045051%
DENSO CORP,0.045032%
WEYERHAEUSER CO,0.045014%
P G & E CORP,0.044932%
ALIGN TECHNOLOGY,0.044206%
SOCIETE GENERALE,0.044185%
ORANGE,0.044182%
QUANTA SERVICES,0.044049%
KOMATSU,0.044021%
STEEL DYNAMICS,0.043771%
NIDEC CORP,0.043667%
FORTIVE,0.043339%
SEA A ADR,0.043305%
FIRST REPUBLIC BANK,0.043266%
TESCO,0.043155%
REPSOL,0.043110%
PRINCIPAL FINANCIAL GRP,0.043100%
ALEXANDRIA REAL ESTATE,0.043013%
GOODMAN GROUP,0.042943%
SSE,0.042923%
SANDVIK,0.042910%
MARTIN MARIETTA MATRLS,0.042863%
HUNTINGTON BANCSHARES,0.042620%
KONINKLIJKE DSM,0.042478%
MITSUBISHI ELECTRIC CORP,0.042417%
BRIDGESTONE CORP,0.042412%
ASSICURAZIONI GENERALI,0.042410%
EVOLUTION,0.042401%
EXTRA SPACE STORAGE,0.042318%
EQUITY RESIDENTIAL,0.042244%
REGIONS FINANCIAL (NEW),0.042147%
CANON INC,0.041920%
MONOLITHIC POWER SYSTEMS,0.041892%
IMPERIAL BRANDS,0.041864%
TELEFONICA,0.041693%
HEXAGON B,0.041522%
MICHELIN,0.041488%
ORIX CORP,0.041455%
JAPAN POST HOLDINGS CO,0.041328%
AGNICO EAGLE MINES,0.041256%
PARTNERS GROUP HOLDING,0.041039%
CELLNEX TELECOM,0.040723%
LABORATORY CORP OF AMER,0.040694%
DOVER CORP,0.040682%
FIRSTENERGY CORP,0.040628%
AMEREN CORPORATION,0.040451%
DAI ICHI LIFE HOLDINGS,0.040385%
DTE ENERGY,0.039974%
RAYMOND JAMES FINANCIAL,0.039921%
ENTERGY CORP,0.039846%
ARGEN X,0.039715%
NESTE CORPORATION,0.039636%
CITIZENS FINANCIAL GROUP,0.039567%
THOMSON REUTERS CORP,0.039282%
OLYMPUS CORP,0.039272%
MARUBENI CORP,0.039240%
CHURCH & DWIGHT CO,0.039143%
LPL FINANCIAL HOLDINGS,0.039007%
LAS VEGAS SANDS CORP,0.038888%
SUN HUNG KAI PROPERTIES,0.038777%
TELEDYNE TECHNOLOGIES,0.038770%
UPM-KYMMENE,0.038678%
HEWLETT PACKARD ENT CO,0.038607%
SKAND.ENSKILDA BANKEN A,0.038488%
CARDINAL HEALTH,0.038456%
HALEON,0.038455%
BROWN-FORMAN CORP B,0.038447%
COTERRA ENERGY,0.038425%
VEOLIA ENVIRONNEMENT,0.038150%
BAXTER INTERNATIONAL,0.038019%
PPL CORP,0.037930%
INSULET CORP,0.037878%
SUMITOMO CORP,0.037714%
HOLOGIC,0.037526%
GEBERIT,0.037192%
SWISS LIFE HOLDING,0.037153%
3I GROUP,0.036935%
PANASONIC HOLDINGS CORP,0.036904%
NASDAQ,0.036885%
CLOROX CO,0.036852%
CGI A,0.036768%
VENTAS,0.036690%
TECK RESOURCES B,0.036645%
CAIXABANK,0.036557%
FORTIS,0.036460%
STERIS,0.036335%
WHEATON PRECIOUS METALS,0.036322%
FIRST SOLAR,0.036250%
BIOMARIN PHARMACEUTICAL,0.036239%
KBC GROUPE,0.036221%
NATWEST GROUP,0.036185%
VERISIGN,0.036158%
NORTHERN TRUST CORP,0.036096%
DATADOG A,0.036053%
OMNICOM GROUP,0.036014%
RESTAURANT BRANDS INT,0.035920%
PUBLICIS GROUPE,0.035918%
INVITATION HOMES,0.035840%
MOSAIC CO (THE),0.035670%
LEGAL & GENERAL GROUP,0.035599%
PEMBINA PIPELINE,0.035535%
WATERS CORP,0.035472%
NIPPON STEEL CORP,0.035461%
SHISEIDO CO,0.035381%
SOLAREDGE TECHNOLOGIES,0.035337%
MCCORMICK & CO NV,0.035307%
DNB BANK,0.035298%
TAKE-TWO INTERACTIVE SOF,0.035221%
XYLEM,0.035176%
SWEDBANK,0.035090%
WABTEC CORP,0.034990%
MID-AMERICA APARTMENT,0.034689%
SKYWORKS SOLUTIONS,0.034585%
CINCINNATI FINL CORP,0.034575%
MARKEL CORP,0.034480%
HUBSPOT,0.034137%
DARDEN RESTAURANTS,0.033945%
EPAM SYSTEMS,0.033935%
KONE B,0.033658%
UNIVERSAL MUSIC GROUP,0.033450%
CENTERPOINT ENERGY,0.033256%
SUN COMMUNITIES,0.033243%
KAO CORP,0.033240%
KEYCORP,0.033235%
TYSON FOODS A,0.033150%
BALL CORP,0.033130%
CONAGRA BRANDS,0.033072%
VONOVIA,0.033014%
TERUMO CORP,0.032965%
FAIR ISAAC CORP,0.032926%
MITSUI FUDOSAN CO,0.032814%
CNH INDUSTRIAL,0.032586%
ROGERS COMMUNICATIONS B,0.032556%
IDEX CORP,0.032544%
FUJI FILM HOLDINGS CO,0.032415%
CMS ENERGY CORP,0.032381%
EXPEDITORS INTL OF WASH,0.032379%
SVB FINANCIAL GROUP,0.032299%
BEST BUY CO,0.032291%
CF INDUSTRIES HOLDINGS,0.032255%
KELLOGG CO,0.032252%
WP CAREY,0.032242%
LINK REIT,0.032224%
SPLUNK,0.032193%
AMCOR,0.032056%
AVANTOR,0.031971%
BROADRIDGE FINANCIAL,0.031801%
AES CORP,0.031765%
ORSTED,0.031757%
ATLAS COPCO B,0.031749%
ROYAL CARIBBEAN GROUP,0.031706%
TARGA RESOURCES CORP,0.031678%
CHUGAI PHARMACEUTICAL CO,0.031656%
MARATHON OIL CORP,0.031623%
ARCELORMITTAL A,0.031563%
ESSITY B,0.031497%
CK HUTCHISON HOLDINGS,0.031494%
COLES,0.031443%
SYNCHRONY FINANCIAL,0.031299%
FMC CORP,0.031161%
ASAHI GROUP HOLDINGS,0.031125%
ERICSSON (LM) B,0.031043%
CENTRAL JAPAN RAILWAY CO,0.030987%
MOLINA HEALTHCARE,0.030873%
EXPEDIA GROUP,0.030862%
DANSKE BANK,0.030862%
COOPER COMPANIES (THE),0.030828%
SWISSCOM,0.030802%
HOWMET AEROSPACE,0.030770%
KYOCERA CORP,0.030622%
FAIRFAX FINANCIAL HLDGS,0.030604%
QUEST DIAGNOSTICS,0.030565%
NIBE INDUSTRIER B,0.030523%
TERADYNE,0.030488%
FACTSET RESEARCH SYSTEMS,0.030363%
DOLLARAMA,0.030200%
ZEBRA TECHNOLOGIES A,0.030139%
NVR,0.030125%
PERKINELMER,0.030120%
ATMOS ENERGY CORP,0.030072%
WSP GLOBAL,0.030027%
JM SMUCKER CO,0.029907%
TELEPERFORMANCE,0.029833%
RENTOKIL INITIAL,0.029747%
ZOOM VIDEO COMM A,0.029719%
EVEREST RE GROUP,0.029555%
EAST JAPAN RAILWAY CO,0.029552%
QBE INSURANCE GROUP,0.029548%
KUBOTA CORP,0.029523%
IRON MOUNTAIN,0.029514%
TEXTRON,0.029503%
KERRY GROUP A,0.029425%
MAGNA INTERNATIONAL,0.029399%
THALES,0.029395%
ASM INTERNATIONAL,0.029327%
SVENSKA HANDELSBK A,0.029310%
RENESAS ELECTRONICS CORP,0.029234%
AVIVA,0.029131%
HUNT (J.B.) TRANSPORT,0.029131%
JACOBS SOLUTIONS,0.029117%
SANTOS,0.029095%
CLOUDFLARE A,0.028945%
GALAXY ENTERTAINMENT GRP,0.028917%
FLEETCOR TECHNOLOGIES,0.028882%
AXON ENTERPRISE,0.028856%
ROLLS-ROYCE GROUP,0.028790%
ETSY,0.028704%
RELIANCE STEEL & ALUM,0.028661%
POWER CORP OF CANADA,0.028654%
GARMIN,0.028643%
UNI-CHARM CORP,0.028562%
CREDIT AGRICOLE,0.028562%
ADVANTEST CORP,0.028546%
SINGAPORE TELECOM,0.028509%
ARISTOCRAT LEISURE,0.028490%
STRAUMANN HOLDING,0.028436%
AJINOMOTO CO,0.028435%
INCYTE CORP,0.028417%
TOURMALINE OIL CORP,0.028388%
SIEMENS HEALTHINEERS,0.028361%
PINTEREST A,0.028327%
AVERY DENNISON CORP,0.028315%
KUEHNE & NAGEL INTL,0.028290%
DAIMLER TRUCK HOLDING,0.028221%
SGS,0.028192%
LKQ CORP,0.028140%
PAYCOM SOFTWARE,0.028025%
LAMB WESTON HOLDINGS,0.028018%
ESSEX PROPERTY TRUST,0.027861%
MONGODB A,0.027854%
EDENRED,0.027791%
KONINKLIJKE PHILIPS,0.027632%
BERKLEY (W.R.) CORP,0.027577%
BUNGE,0.027526%
MS&AD INSURANCE GROUP,0.027416%
JULIUS BAER GROUP,0.027412%
BURLINGTON STORES,0.027328%
NEWCREST MINING,0.027287%
TECHTRONIC INDUSTRIES CO,0.027163%
NETAPP,0.027112%
LOBLAW,0.027007%
CARLSBERG B,0.026993%
EDP ENERGIAS DE PORTUGAL,0.026929%
GAMING & LEISURE PPTYS,0.026805%
SOUTH 32 (AU),0.026776%
INTERPUBLIC GROUP OF COS,0.026683%
PTC,0.026678%
SHAW COMMUNICATIONS B,0.026605%
MITSUBISHI ESTATE CO,0.026600%
PORSCHE VORZUG,0.026561%
FERROVIAL,0.026527%
DAIWA HOUSE INDUSTRY,0.026495%
VIATRIS,0.026482%
MGM RESORTS INTL,0.026325%
COLOPLAST B,0.026321%
POOL CORP,0.026280%
SYMRISE,0.026221%
EISAI CO,0.026184%
UDR,0.026179%
BROWN & BROWN,0.026034%
SOMPO HOLDINGS,0.026032%
CBOE GLOBAL MARKETS,0.025953%
AKZO NOBEL,0.025909%
HUBBELL,0.025886%
LIBERTY FORMULA ONE C,0.025869%
ROBLOX CORP A,0.025846%
CARLISLE COS,0.025756%
FIRST QUANTUM MINERALS,0.025740%
TYLER TECHNOLOGIES,0.025735%
EVERGY,0.025727%
SS&C TECHNOLOGIES HLDGS,0.025705%
WPP,0.025683%
NICE,0.025681%
TDK CORP,0.025669%
ERSTE GROUP BANK,0.025646%
PARAMOUNT GLOBAL B,0.025517%
MTU AERO ENGINES,0.025478%
HORMEL FOODS CORP,0.025423%
SNAP-ON,0.025380%
SUZUKI MOTOR CORP,0.025319%
MONCLER SPA,0.025249%
MARKETAXESS HLDGS,0.025236%
HENKEL VORZUG,0.025183%
CELANESE CORP,0.025062%
PALANTIR TECHNOLOGIES A,0.024980%
TRIMBLE,0.024919%
PACKAGING CORP OF AMER,0.024781%
EPIROC A,0.024756%
SONOVA HOLDING,0.024725%
COMMERZBANK,0.024708%
APA CORPORATION,0.024601%
HEALTHPEAK PROPERTIES,0.024535%
KIMCO REALTY CORP,0.024479%
ENTEGRIS,0.024468%
BOC HONG KONG HOLDINGS,0.024395%
CK ASSET HOLDINGS,0.024387%
BOOZ ALLEN HAMILTON A,0.024371%
DOORDASH A,0.024367%
ALLIANT ENERGY CORP,0.024355%
ARES MANAGEMENT CORP,0.024328%
SEAGATE TECHNOLOGY,0.024282%
ROYALTY PHARMA A,0.024270%
HANG SENG BANK,0.024267%
LEIDOS HOLDINGS,0.024235%
TRANSUNION,0.024218%
SMITH & NEPHEW,0.024171%
LIVE NATION ENTMT,0.024076%
CHECK POINT SOFTW (USD),0.023978%
INTERNATIONAL PAPER,0.023936%
STANLEY BLACK & DECKER,0.023917%
SUMITOMO MITSUI TRUST,0.023913%
BANK LEUMI LE-ISRAEL,0.023904%
NIPPON YUSEN K.K,0.023875%
LOEWS CORP,0.023867%
PULTEGROUP,0.023850%
KIRIN HOLDINGS CO,0.023726%
BANDAI NAMCO HOLDINGS,0.023698%
BRAMBLES,0.023629%
AP MOLLER MAERSK B,0.023563%
METRO A,0.023547%
HOST HOTELS & RESORTS,0.023484%
SECOM CO,0.023450%
LASERTEC CORP,0.023398%
WESTERN DIGITAL,0.023380%
BEIERSDORF,0.023355%
WYNN RESORTS,0.023324%
CAMECO CORP,0.023297%
BUNZL,0.023276%
NOMURA HOLDINGS,0.023264%
AEON CO,0.023254%
HENRY (JACK) & ASSOCIATE,0.023091%
EQUITABLE HOLDINGS,0.023085%
BROOKFIELD ASSET MAN LTD,0.023067%
FIRST HORIZON NATIONAL,0.022947%
TOSHIBA CORP,0.022930%
BORGWARNER,0.022899%
DOCUSIGN,0.022868%
HANNOVER RUECK,0.022848%
LINDT & SPRUENGLI NAMEN,0.022836%
OTSUKA HOLDINGS CO,0.022830%
CLP HOLDINGS,0.022803%
CATALENT,0.022780%
MITSUBISHI HEAVY IND,0.022757%
BIO-TECHNE CORP,0.022703%
BANK OF IRELAND GROUP,0.022693%
GODADDY A,0.022683%
INTERCONTINENTAL HOTELS,0.022680%
BT GROUP,0.022641%
RESONA HOLDINGS,0.022632%
EQUITY LIFESTYLE PPTYS,0.022626%
AENA,0.022601%
BRENNTAG,0.022589%
CH ROBINSON WORLDWIDE,0.022586%
BOLIDEN,0.022583%
SEKISUI HOUSE,0.022537%
GRACO,0.022508%
SEGRO,0.022507%
MASCO CORP,0.022474%
MATCH GROUP(NEW),0.022445%
NEW INFORMA,0.022386%
AECOM,0.022352%
SHIONOGI & CO,0.022333%
BURBERRY GROUP,0.022303%
TORO CO,0.022239%
AKAMAI TECHNOLOGIES,0.022178%
RPM INTL,0.022172%
TWILIO A,0.022152%
CARREFOUR,0.022112%
RHEINMETALL,0.022097%
SHIMANO,0.022085%
NN GROUP,0.021994%
KONINKLIJKE KPN,0.021930%
CHARLES RIVER LABS INTL,0.021899%
CAMDEN PROPERTY TRUST,0.021877%
LINDT & SPRUENGLI PART,0.021872%
FRESENIUS,0.021838%
NORDSON CORP,0.021818%
COCA COLA EUROPAC (US),0.021762%
INPEX CORP,0.021758%
GEN DIGITAL,0.021721%
GLOBE LIFE,0.021706%
OVINTIV(US),0.021671%
TEVA PHARMA IND ADR,0.021616%
UNITED THERAPEUTICS CORP,0.021550%
ZSCALER,0.021458%
EXACT SCIENCES CORP,0.021425%
TEXAS PACIFIC LAND,0.021366%
TELSTRA GROUP,0.021336%
CLEVELAND CLIFFS,0.021312%
SUNCORP GROUP,0.021295%
SNAP A,0.021283%
CRODA INTERNATIONAL,0.021267%
CAESARS ENT INC,0.021253%
EQT,0.021239%
TELEFLEX,0.021162%
NISOURCE (NEW),0.021039%
CAMPBELL SOUP,0.021031%
BANK HAPOALIM,0.021020%
UCB (GROUPE),0.020981%
CARMAX,0.020978%
OKTA,0.020946%
ENEOS HOLDINGS,0.020797%
IMPERIAL OIL,0.020688%
NEXT,0.020647%
DOMINOS PIZZA,0.020623%
ESSENTIAL UTILITIES,0.020481%
CARNIVAL CORP (US),0.020476%
CREDIT SUISSE,0.020448%
BIO-RAD LABORATORIES A,0.020446%
HONGKONG CHINA GAS,0.020407%
HENRY SCHEIN,0.020348%
NEW FOX A,0.020324%
EMERA,0.020293%
FINECOBANK,0.020240%
DELL TECHNOLOGIES C,0.020233%
M3,0.020218%
TERNA,0.020189%
SPIRAX SARCO ENGINEERING,0.020154%
QIAGEN,0.020066%
SARTORIUS VORZUG,0.020027%
EASTMAN CHEMICAL CO,0.020010%
NEXON CO,0.019934%
LIBERTY BROADBAND C,0.019928%
SCENTRE GROUP,0.019928%
CROWN HOLDINGS,0.019917%
DARLING INGREDIENTS,0.019789%
KINGSPAN GROUP,0.019788%
SWATCH GROUP INH,0.019751%
NORSK HYDRO,0.019688%
QORVO,0.019664%
OBIC CO,0.019630%
HEIDELBERGCEMENT,0.019598%
MOLSON COORS BREWING B,0.019472%
OMRON CORP,0.019404%
FNF GROUP,0.019362%
NOVOZYMES B,0.019334%
SUBARU CORPORATION,0.019324%
WORLDLINE,0.019296%
HEICO CORP A,0.019277%
INVESTOR A,0.019259%
PRYSMIAN,0.019247%
CERIDIAN HCM HOLDING,0.019222%
HEINEKEN HOLDING,0.019205%
COCHLEAR,0.019192%
MINERAL RESOURCES,0.019182%
SYSMEX CORP,0.019153%
JUNIPER NETWORKS,0.019132%
SONIC HEALTHCARE,0.019108%
AMERICAN FINANCIAL GROUP,0.019078%
HALMA,0.019072%
ALLEGION,0.019066%
YASKAWA ELECTRIC CORP,0.019031%
SNAM,0.018984%
NEUROCRINE BIOSCIENCES,0.018794%
REGENCY CENTERS CORP,0.018662%
ALFA LAVAL,0.018656%
BOSTON PROPERTIES,0.018635%
TFI INTERNATIONAL,0.018614%
AMERICAN HOMES 4 RENT A,0.018613%
ENTAIN,0.018606%
SUMITOMO METAL MINING CO,0.018446%
VAIL RESORTS,0.018311%
ALSTOM,0.018212%
ANNALY CAPITAL MGMT,0.018194%
SMURFIT KAPPA GROUP,0.018183%
AEGON,0.018180%
HARDIE (JAMES) IND CDI,0.018047%
ORIGIN ENERGY,0.018043%
SCHINDLER HOLDING PART,0.017976%
TELUS CORP VTG,0.017975%
REPLIGEN CORP,0.017963%
WOLFSPEED,0.017939%
EIFFAGE,0.017919%
CHESAPEAKE ENERGY CORP,0.017884%
OPEN TEXT CORP,0.017867%
DISCO CORP,0.017862%
FISHER & PAYKEL HEALTH,0.017841%
WHARF REAL ESTATE INV,0.017828%
LOGITECH,0.017768%
SAGE GROUP (THE),0.017766%
OWENS CORNING,0.017759%
HENNES & MAURITZ B,0.017665%
ALCOA (NEW),0.017645%
NISSAN MOTOR CO,0.017635%
DYNATRACE,0.017586%
BLACK KNIGHT,0.017584%
PENTAIR PLC,0.017583%
SIEMENS ENERGY,0.017571%
WEBSTER FINANCIAL CORP,0.017518%
EXOR,0.017488%
COMPUTERSHARE,0.017455%
SARTORIUS STEDIM BIOTECH,0.017447%
BATH & BODY WORKS,0.017378%
WESTON (GEORGE),0.017356%
ALLY FINANCIAL,0.017339%
IMCD GROUP,0.017202%
NITORI HOLDINGS CO,0.017158%
ZALANDO,0.017134%
SUMITOMO ELECTRIC IND,0.017128%
MITSUI OSK LINES,0.017097%
JAZZ PHARMACEUTICALS,0.017083%
ASX,0.017080%
NOMURA RESEARCH INST,0.017078%
SANDS CHINA,0.017051%
PORSCHE AUTOMOBIL VZG,0.017044%
TOYOTA TSUSHO,0.017024%
YAKULT HONSHA CO,0.016995%
TOYOTA INDUSTRIES CORP,0.016992%
ASAHI KASEI CORP,0.016972%
MASIMO,0.016963%
ROBERT HALF INTL,0.016935%
NITTO DENKO CORP,0.016911%
FRANKLIN RESOURCES,0.016841%
NEC CORP,0.016806%
F5,0.016789%
NTT DATA CORP,0.016758%
ARAMARK,0.016695%
KNIGHT-SWIFT TRANSPORT,0.016680%
HUNTINGTON INGALLS IND,0.016621%
ASSOCIATED BRITISH FOODS,0.016620%
RENAULT,0.016617%
PANDORA,0.016574%
AKER BP,0.016555%
COVESTRO,0.016504%
HYDRO ONE,0.016494%
AERCAP HOLDINGS NV,0.016479%
APA GROUP,0.016410%
SOLVAY,0.016408%
SCA B,0.016379%
UNIVERSAL HEALTH SVCS B,0.016361%
SMITH (A.O.) CORP,0.016356%
GROUPE BRUXELLES LAMBERT,0.016344%
WEST JAPAN RAILWAY CO,0.016278%
BUREAU VERITAS SA,0.016266%
ST JAMES'S PLACE,0.016149%
NORTHERN STAR RESOURCES,0.016138%
LEAR CORP,0.016132%
EUROFINS SCIENTIFIC,0.016108%
MONDI PLC (GB),0.016051%
COGNEX CORP,0.016047%
VF CORP,0.016000%
RAMSAY HEALTH CARE,0.015920%
ROCHE HOLDING INHABER,0.015898%
ADVANCE AUTO PARTS,0.015882%
SODEXO,0.015874%
VAT GROUP,0.015849%
ELISA A,0.015714%
WESTROCK COMPANY,0.015693%
UNITED UTILITIES GROUP,0.015668%
COINBASE GLOBAL A,0.015632%
CONTINENTAL,0.015630%
INTERTEK GROUP,0.015572%
TRYG,0.015542%
SEVERN TRENT,0.015534%
LENNOX INTERNATIONAL,0.015533%
DENTSPLY SIRONA,0.015503%
TORAY INDUSTRIES,0.015462%
BILL HOLDINGS,0.015458%
T&D HOLDINGS,0.015451%
STORA ENSO R,0.015416%
JARDINE MATHESON (USD),0.015404%
TRADEWEB MARKETS A,0.015349%
TELENOR,0.015315%
TENARIS (IT),0.015285%
MTR CORP,0.015275%
PAYLOCITY HOLDING CORP,0.015229%
EQT AB,0.015227%
YARA INTERNATIONAL,0.015117%
FIRST CITIZENS BANCSHS A,0.015090%
BOUYGUES,0.015042%
FORTUNE BRANDS INNOV,0.015027%
VISTRA ENERGY,0.015013%
FRESENIUS MEDICAL CARE,0.015006%
UGI CORP,0.015004%
SENSATA TECH HLDG,0.014994%
HF SINCLAIR,0.014973%
ROKU A,0.014972%
INSURANCE AUSTRALIA GRP,0.014969%
ANTOFAGASTA,0.014956%
BENTLEY SYSTEMS B,0.014912%
YAMAHA MOTOR CO,0.014905%
GREAT-WEST LIFECO,0.014883%
ROLLINS,0.014784%
THE LOTTERY CORPORATION,0.014766%
CAPITALAND INTEGRATED,0.014738%
BALOISE HOLDING,0.014704%
SMITHS GROUP,0.014698%
NRG ENERGY,0.014688%
MITSUBISHI CHEMICAL GRP,0.014543%
VIVENDI,0.014529%
POWER ASSETS HOLDINGS,0.014516%
MELROSE INDUSTRIES,0.014474%
GENERAC HOLDINGS,0.014464%
RANDSTAD NV,0.014452%
CHRISTIAN HANSEN HOLDING,0.014437%
HEICO CORP,0.014433%
GETLINK,0.014424%
PLUG POWER,0.014394%
WHIRLPOOL CORP,0.014365%
NIPPON PAINT HOLDINGS CO,0.014334%
TOKYO GAS CO,0.014323%
AP MOLLER MAERSK A,0.014319%
WHITBREAD,0.014299%
ONO PHARMACEUTICAL CO,0.014295%
SKF B,0.014280%
SIG GROUP,0.014256%
UNITY SOFTWARE,0.014222%
HEALTHCARE REALTY T(NEW),0.014219%
AGEAS,0.014189%
JAPAN EXCHANGE GROUP,0.014184%
ARROW ELECTRONICS,0.014141%
UNIBAIL-RODAMCO-WE,0.014047%
PILBARA MINERALS,0.014010%
SUMITOMO REALTY & DEV CO,0.013998%
Z HOLDINGS CORP,0.013994%
HENKEL STAMM,0.013961%
OMV AG,0.013928%
NOVOCURE,0.013911%
PEARSON,0.013907%
CAE,0.013891%
ABN AMRO BANK,0.013885%
AGC,0.013875%
CCL INDUSTRIES B,0.013847%
CAPITALAND INVESTMENT,0.013810%
HASBRO,0.013802%
ARC RESOURCES,0.013765%
METSO OUTOTEC,0.013726%
UMICORE,0.013723%
SIGNATURE BANK,0.013682%
IA FINANCIAL CORP,0.013677%
XERO (AU),0.013670%
SEALED AIR CORP,0.013664%
BARRY CALLEBAUT,0.013647%
MISUMI GROUP,0.013601%
ISUZU MOTORS,0.013588%
MOWI,0.013570%
CAPITALAND ASCENDAS REIT,0.013441%
HAMAMATSU PHOTONICS K.K,0.013352%
SEI INVESTMENTS CO,0.013303%
CARLYLE GROUP,0.013290%
PAN PACIFIC INTL HLDGS,0.013277%
DELIVERY HERO,0.013277%
AUCKLAND INTL AIRPORT,0.013259%
SHIMADZU CORP,0.013253%
TOROMONT INDUSTRIES,0.013238%
ROHM CO,0.013238%
CANADIAN TIRE CORP A,0.013212%
FORTUM CORP,0.013200%
TELIA CO,0.013075%
SAPUTO,0.013052%
GEA GROUP,0.013033%
KIKKOMAN CORP,0.012973%
TREASURY WINE ESTATES,0.012905%
ACS ACTIV CONST Y SVCS,0.012901%
ASSURANT,0.012899%
RED ELECTRICA CORP,0.012885%
RITCHIE BROS AUCTIONEER,0.012875%
CHUBU ELECTRIC POWER CO,0.012867%
AUTO TRADER GROUP,0.012782%
KINGFISHER,0.012777%
EURONEXT,0.012697%
KANSAI ELECTRIC POWER CO,0.012643%
DENTSU GROUP,0.012617%
EPIROC B,0.012581%
HANKYU HANSHIN HOLDINGS,0.012546%
ZILLOW GROUP C,0.012492%
NEWS CORP A,0.012491%
SWISS PRIME SITE,0.012449%
TOKYU CORP,0.012431%
MINEBEA MITSUMI,0.012425%
ENDEAVOUR GROUP,0.012424%
ZOOMINFO TECH A,0.012336%
DAIWA SECURITIES GROUP,0.012299%
PUMA,0.012247%
NIPPON BUILDING FUND,0.012203%
LUFTHANSA,0.012202%
MEDIOBANCA,0.012199%
TREND MICRO,0.012161%
JFE HOLDINGS,0.012090%
IGO,0.012078%
ASPEN TECHNOLOGY,0.012033%
DESCARTES SYSTEMS GROUP,0.012031%
BLUESCOPE STEEL,0.012009%
SKANSKA B,0.012007%
MEDIBANK PRIVATE,0.011976%
DELTA AIR LINES,0.011919%
ARKEMA,0.011905%
WISETECH GLOBAL,0.011888%
ENDESA,0.011882%
STOCKLAND,0.011784%
DAI NIPPON PRINTING CO,0.011733%
DEXUS,0.011714%
OSAKA GAS CO,0.011713%
ISRAEL DISCOUNT BANK,0.011677%
MEDICAL PROPERTIES TRUST,0.011627%
INVESCO LTD,0.011545%
GPT GROUP,0.011507%
KESKO B,0.011497%
ERIE INDEMNITY CO A,0.011494%
EDP RENOVAVEIS,0.011483%
KEPPEL CORP,0.011482%
MIRVAC GROUP,0.011439%
TAISEI CORP,0.011433%
CYBERARK SOFTWARE (USD),0.011395%
GALP ENERGIA SGPS B,0.011382%
DAITO TRUST CONSTRUCTION,0.011341%
M&G,0.011339%
INDUTRADE,0.011335%
SPARK NEW ZEALAND,0.011333%
JERONIMO MARTINS SGPS,0.011325%
NORTHLAND POWER,0.011325%
DAVIDE CAMPARI-MILANO,0.011260%
BMW VORZUG,0.011230%
ADECCO GROUP,0.011201%
GILDAN ACTIVEWEAR,0.011107%
PHOENIX GROUP HOLDINGS,0.011095%
LAND SECURITIES GROUP,0.011062%
SINGAPORE AIRLINES,0.011026%
NEWELL BRANDS,0.010955%
DROPBOX A,0.010923%
KYOWA KIRIN CO,0.010911%
VERBUND A,0.010902%
ABRDN,0.010889%
WILMAR INTERNATIONAL,0.010861%
ELEMENT FLEET MANAGEMENT,0.010851%
TIS,0.010837%
SAINSBURY (J),0.010837%
POSTE ITALIANE,0.010813%
NISSAN CHEMICAL,0.010805%
GFL ENVIRONMENTAL HLD SV,0.010780%
ACCOR,0.010769%
JD SPORTS FASHION,0.010750%
SINGAPORE EXCHANGE,0.010681%
CARL ZEISS MEDITEC,0.010677%
DAIFUKU CO,0.010674%
TMX GROUP (NEW),0.010664%
BUDWEISER BREWING CO,0.010651%
LIBERTY GLOBAL C,0.010648%
MAKITA CORP,0.010644%
CAPCOM CO,0.010602%
DCC (GB),0.010522%
SEEK,0.010482%
FIRSTSERVICE CORP(NEW),0.010476%
BARRATT DEVELOPMENTS,0.010439%
KLEPIERRE,0.010369%
BERKELEY GRP HLDGS,0.010356%
EMS-CHEMIE HOLDING,0.010340%
IVANHOE MINES A,0.010330%
AMPOL,0.010326%
SCHRODERS,0.010281%
VICINITY CENTRES,0.010258%
YAMAHA CORP,0.010241%
LEG IMMOBILIEN,0.010222%
SBI HOLDINGS,0.010191%
HENDERSON LAND DEV,0.010146%
SUMITOMO CHEMICAL CO,0.010146%
MAZDA MOTOR CORP,0.010146%
VOLKSWAGEN STAMM,0.010145%
MATSUKIYOCOCOKARA & CO,0.010107%
GECINA,0.010088%
JAPAN METROPOLITAN FUND,0.010052%
KINTETSU GROUP HOLDINGS,0.010003%
COCA-COLA HBC CDI,0.010002%
HONGKONG LAND (USD),0.009997%
NISSIN FOODS HOLDINGS CO,0.009988%
LIBERTY SIRIUSXM C,0.009970%
MOHAWK INDUSTRIES,0.009931%
TELE2 B,0.009916%
SCHINDLER HOLDING NAMEN,0.009892%
ICL GROUP,0.009857%
KNORR-BREMSE,0.009850%
TOKYO ELECTRIC POWER CO,0.009831%
KAJIMA CORP,0.009808%
ALGONQUIN POWER & UTL,0.009801%
JAPAN REAL ESTATE INV,0.009796%
BOLLORE,0.009766%
WH GROUP,0.009765%
MEIJI HOLDINGS CO,0.009754%
RIVIAN AUTOMOTIVE A,0.009725%
BAYCURRENT CONSULTING,0.009725%
WIX.COM,0.009711%
ORION-YHTYMAE B,0.009708%
ORKLA,0.009704%
HKT TRUST AND HKT,0.009695%
TAYLOR WIMPEY,0.009674%
SOUTHWEST AIRLINES CO,0.009644%
FUJI ELECTRIC CO,0.009630%
ORICA,0.009621%
SEKISUI CHEMICAL CO,0.009552%
SUNTORY BEVERAGE & FOOD,0.009526%
DIETEREN GROUP,0.009481%
KEYERA,0.009477%
PERSIMMON,0.009457%
SUMCO,0.009447%
WAREHOUSES DE PAUW,0.009421%
U-HAUL HOLDING NV,0.009384%
ALTAGAS,0.009354%
OBAYASHI CORP,0.009339%
TOPPAN,0.009304%
JOHNSON MATTHEY,0.009292%
ELANCO ANIMAL HEALTH,0.009279%
YAMATO HOLDINGS CO,0.009253%
MIZRAHI TEFAHOT BANK,0.009243%
GETINGE B,0.009227%
TEMENOS GROUP,0.009161%
IDEMITSU KOSAN CO,0.009124%
NEXI,0.009121%
KINROSS GOLD CORP,0.009110%
TOTO,0.009097%
LIFCO B,0.009080%
CONCORDIA FINANCIAL GRP,0.009080%
KURITA WATER INDUSTRIES,0.009063%
WARTSILA B,0.009057%
ADMIRAL GROUP,0.009048%
GLP J REIT,0.009042%
BRITISH LAND CO,0.009022%
WESTLAKE CORPORATION,0.008991%
ACCIONA,0.008967%
GENTING SINGAPORE,0.008960%
NOMURA REAL EST MF (NEW),0.008951%
NEW FOX B,0.008916%
TOAST A,0.008916%
LIXIL CORPORATION,0.008813%
SAGAX B,0.008801%
SCOUT24,0.008788%
EVONIK INDUSTRIES,0.008741%
AIB GROUP,0.008717%
SINO LAND,0.008714%
DAIWA HOUSE REIT INV CO,0.008684%
NIPPON PROLOGIS REIT,0.008657%
TOWER SEMICONDUCTOR,0.008641%
MITSUI CHEMICALS,0.008626%
DAVITA HEALTHCARE PARTNR,0.008594%
ELBIT SYSTEMS,0.008589%
VALEO,0.008568%
EBOS GROUP,0.008509%
ENAGAS,0.008500%
WEST FRASER TIMBER,0.008469%
NIPPON EXPRESS HLDGS,0.008443%
RAKUTEN GROUP,0.008431%
RECORDATI,0.008428%
VOESTALPINE,0.008379%
DASSAULT AVIATION,0.008376%
ADP,0.008359%
LUNDIN MINING CORP,0.008358%
REA GROUP,0.008345%
MERIDIAN ENERGY,0.008338%
IPSEN,0.008300%
PATTINSON (WASHINGTON),0.008225%
ELIA GROUP,0.008215%
RICOH CO,0.008209%
EMPIRE CO A,0.008198%
NEW WORLD DEVELOPMENT,0.008190%
MAPLETREE LOGISTICS,0.008185%
INDUSTRIVARDEN C,0.008178%
VOLVO A,0.008111%
SECURITAS B,0.008086%
TOBU RAILWAY CO,0.008075%
LA FRANCAISE DES JEUX,0.008069%
KONAMI GROUP CORP,0.007991%
SG HOLDINGS CO,0.007979%
REMY COINTREAU,0.007971%
AISIN CORP,0.007962%
AURIZON HOLDINGS,0.007908%
SINGAPORE TECH ENGR,0.007883%
BIOMERIEUX,0.007852%
AMUNDI,0.007851%
JSR CORP,0.007839%
GRAB HOLDINGS A,0.007796%
NATURGY ENERGY GROUP,0.007792%
QANTAS AIRWAYS,0.007772%
KOBE BUSSAN CO,0.007759%
HANG LUNG PROPERTIES,0.007749%
IBIDEN CO,0.007720%
IDP EDUCATION,0.007668%
JUST EAT TAKEAWAY.COM,0.007576%
SWEDISH ORPHAN BIOVITRUM,0.007569%
SWIRE PACIFIC A,0.007515%
TOHO CO,0.007499%
HOSHIZAKI CORP,0.007482%
CHIBA BANK,0.007481%
SEIKO EPSON CORPORATION,0.007464%
OTSUKA CORP,0.007446%
ONEX CORP,0.007407%
SOFINA,0.007380%
HOLMEN B,0.007357%
SQUARE ENIX HOLDINGS CO,0.007324%
CHEWY A,0.007237%
HUSQVARNA B,0.007160%
KEISEI ELECTRIC RAILWAY,0.007153%
GRIFOLS,0.007151%
JAPAN POST BANK CO,0.007149%
QUEBECOR B,0.007143%
KONGSBERG GRUPPEN,0.007130%
INFRASTRUTTURE WIRELESS,0.007098%
OCADO GROUP,0.007094%
HIROSE ELECTRIC CO,0.007092%
KOSE CORPORATION,0.007057%
BROOKFIELD RENEWABLE,0.006994%
LUCID GROUP A,0.006992%
AMPLIFON,0.006955%
CYBER AGENT,0.006948%
INDUSTRIVARDEN A,0.006942%
GJENSIDIGE FORSIKRING,0.006924%
SHIZUOKA FINANCIAL GROUP,0.006920%
HARGREAVES LANSDOWN,0.006898%
ASAHI INTECC CO,0.006895%
HELLOFRESH,0.006889%
VENTURE CORP,0.006887%
PERSOL HOLDINGS CO,0.006872%
JAPAN POST INSURANCE CO,0.006868%
KOITO MANUFACTURING CO,0.006858%
KINNEVIK B,0.006847%
LUNDBERGFORETAGEN B,0.006839%
CLARIANT,0.006838%
TOSOH CORP,0.006835%
KEIO CORP,0.006834%
XINYI GLASS HOLDING CO,0.006826%
BECHTLE,0.006824%
ODAKYU ELECTRIC RAILWAY,0.006824%
LENDLEASE GROUP,0.006804%
YOKOGAWA ELECTRIC CORP,0.006798%
OCI NV,0.006743%
ESR GROUP,0.006721%
MCDONALD'S HLDGS CO JP,0.006718%
GMO PAYMENT GATEWAY,0.006707%
CLARIVATE,0.006690%
MITSUBISHI HC CAPITAL,0.006685%
HIKMA PHARMACEUTICALS,0.006657%
BROTHER INDUSTRIES,0.006637%
SWATCH GROUP NAM,0.006575%
MONOTARO CO,0.006571%
CK INFRASTRUCTURE HLDGS,0.006508%
USS CO,0.006448%
RATIONAL,0.006441%
SIRIUS XM HOLDINGS,0.006413%
LIBERTY GLOBAL A,0.006410%
BACHEM HOLDING B,0.006409%
OJI HOLDINGS CORP,0.006388%
CANADIAN UTILITIES A,0.006380%
NEMETSCHEK,0.006361%
TELECOM ITALIA,0.006295%
ANA HOLDINGS,0.006277%
TELEFONICA DEUTSCHLAND,0.006253%
PAN AMERICAN SILVER CORP,0.006237%
BCE INC,0.006235%
NGK INSULATORS,0.006151%
SWIRE PROPERTIES,0.006087%
BRP INC SV,0.006083%
LATOUR INVESTMENT B,0.005999%
EMBRACER GROUP B,0.005984%
PARKLAND,0.005972%
NIPPON SANSO HOLDINGS,0.005969%
HULIC CO (NEW),0.005871%
COVIVIO,0.005849%
KOBAYASHI PHARMA CO,0.005836%
MAPLETREE PAN ASIA COMM,0.005830%
EURAZEO,0.005791%
SITC INTL HOLDINGS,0.005780%
SHIMIZU CORP,0.005778%
WENDEL,0.005770%
FASTIGHETS AB BALDER B,0.005762%
DIASORIN,0.005758%
AZBIL CORP,0.005756%
CANADIAN APT PPTYS REIT,0.005751%
JDE PEETS,0.005693%
BKW,0.005678%
BEZEQ ISRAEL TELECOM,0.005670%
HIKARI TSUSHIN,0.005667%
FUTU HOLDINGS A ADR,0.005655%
OPEN HOUSE GROUP CO,0.005488%
SEB,0.005413%
ZOZO,0.005366%
DISH NETWORK A,0.005363%
DEMANT,0.005358%
VOLVO CAR B,0.005337%
MERCURY NZ,0.005331%
JAPAN AIRLINES CO,0.005234%
SALMAR,0.005233%
ORACLE CORP JAPAN,0.005109%
NOMURA REAL ESTATE HLDG,0.005108%
BANQUE CANTONALE VAUDOIS,0.005092%
ELECTROLUX B,0.005087%
HAKUHODO DY HOLDINGS,0.005049%
AIR CANADA VV,0.005003%
IGM FINANCIAL,0.004958%
AROUNDTOWN,0.004870%
HITACHI CONST MACHINERY,0.004851%
ACCIONA ENERGIA,0.004841%
REECE,0.004816%
NIHON M&A CENTER HLDGS,0.004802%
IIDA GROUP HOLDINGS CO,0.004688%
UNITED OVERSEAS LAND,0.004618%
KEPPEL CORP (DETACHED 2),0.004602%
CITY DEVELOPMENTS,0.004574%
AZRIELI GROUP,0.004554%
RIOCAN REIT,0.004552%
LIBERTY SIRIUSXM A,0.004487%
NISSHIN SEIFUN GROUP,0.004397%
SCSK CORP,0.004355%
ADEVINTA,0.004252%
JARDINE CYCLE & CARRIAGE,0.004233%
ITOCHU TECHNO-SOLUTIONS,0.004133%
NIPPON SHINYAKU CO,0.004115%
UNITED INTERNET,0.004091%
ROCKWOOL B,0.004015%
FIRST INTL BANK ISRAEL 5,0.003916%
NUVEI CORPORATION SV,0.003873%
WELCIA HOLDINGS CO,0.003803%
KOEI TECMO HOLDINGS CO,0.003784%
SHARP CORP,0.003019%
CONSTELLATION SFTW (DET),0.001196%